Suite/Test/Step Name,Browser,Description,Tag,Start time,End time,Duration,Status
Regression Login,Chrome 114.0.0.0,,,2023-06-27 17:03:56,2023-06-27 17:05:51,1m - 55.438s,FAILED
,,,,,,,
Test Cases/Login/Login with all user,Chrome 114.0.0.0,,,2023-06-27 17:03:56,2023-06-27 17:05:18,1m - 22.393s,FAILED
"openBrowser("""")",Chrome 114.0.0.0,,,2023-06-27 17:03:57,2023-06-27 17:03:59,2.672s,PASSED
"navigateToUrl(""https://www.saucedemo.com/"")",Chrome 114.0.0.0,,,2023-06-27 17:03:59,2023-06-27 17:04:47,47.729s,PASSED
"setText(findTestObject(""Object Repository/loginPageSwabLabs/formUsername""), username)",Chrome 114.0.0.0,,,2023-06-27 17:04:47,2023-06-27 17:05:18,31.492s,FAILED
,,,,,,,
Test Cases/Login/Login with all user,Chrome 114.0.0.0,,,2023-06-27 17:05:19,2023-06-27 17:05:36,17.507s,FAILED
"openBrowser("""")",Chrome 114.0.0.0,,,2023-06-27 17:05:19,2023-06-27 17:05:21,2.206s,PASSED
"navigateToUrl(""https://www.saucedemo.com/"")",Chrome 114.0.0.0,,,2023-06-27 17:05:21,2023-06-27 17:05:23,2.701s,PASSED
"setText(findTestObject(""Object Repository/loginPageSwabLabs/formUsername""), username)",Chrome 114.0.0.0,,,2023-06-27 17:05:23,2023-06-27 17:05:36,12.425s,PASSED
"setEncryptedText(findTestObject(""Object Repository/loginPageSwabLabs/formPassword""), password)",Chrome 114.0.0.0,,,2023-06-27 17:05:36,2023-06-27 17:05:36,0.156s,FAILED
,,,,,,,
Test Cases/Login/Login with all user,Chrome 114.0.0.0,,,2023-06-27 17:05:36,2023-06-27 17:05:44,8.034s,FAILED
"openBrowser("""")",Chrome 114.0.0.0,,,2023-06-27 17:05:36,2023-06-27 17:05:38,2.103s,PASSED
"navigateToUrl(""https://www.saucedemo.com/"")",Chrome 114.0.0.0,,,2023-06-27 17:05:38,2023-06-27 17:05:43,4.993s,PASSED
"setText(findTestObject(""Object Repository/loginPageSwabLabs/formUsername""), username)",Chrome 114.0.0.0,,,2023-06-27 17:05:43,2023-06-27 17:05:44,0.784s,PASSED
"setEncryptedText(findTestObject(""Object Repository/loginPageSwabLabs/formPassword""), password)",Chrome 114.0.0.0,,,2023-06-27 17:05:44,2023-06-27 17:05:44,0.145s,FAILED
,,,,,,,
Test Cases/Login/Login with all user,Chrome 114.0.0.0,,,2023-06-27 17:05:44,2023-06-27 17:05:51,6.928s,FAILED
"openBrowser("""")",Chrome 114.0.0.0,,,2023-06-27 17:05:44,2023-06-27 17:05:46,1.839s,PASSED
"navigateToUrl(""https://www.saucedemo.com/"")",Chrome 114.0.0.0,,,2023-06-27 17:05:46,2023-06-27 17:05:50,4.185s,PASSED
"setText(findTestObject(""Object Repository/loginPageSwabLabs/formUsername""), username)",Chrome 114.0.0.0,,,2023-06-27 17:05:50,2023-06-27 17:05:51,0.738s,PASSED
"setEncryptedText(findTestObject(""Object Repository/loginPageSwabLabs/formPassword""), password)",Chrome 114.0.0.0,,,2023-06-27 17:05:51,2023-06-27 17:05:51,0.158s,FAILED
