Suite/Test/Step Name,Browser,Description,Tag,Start time,End time,Duration,Status
Regression Login,Chrome 114.0.0.0,,,2023-06-27 18:38:43,2023-06-27 18:42:06,3m - 23.048s,FAILED
,,,,,,,
Test Cases/Login/Login with locked_out_user,Chrome 114.0.0.0,,,2023-06-27 18:38:43,2023-06-27 18:38:53,9.499s,PASSED
"openBrowser("""")",Chrome 114.0.0.0,,,2023-06-27 18:38:44,2023-06-27 18:38:47,2.404s,PASSED
"navigateToUrl(""https://www.saucedemo.com/"")",Chrome 114.0.0.0,,,2023-06-27 18:38:47,2023-06-27 18:38:49,2.232s,PASSED
"setText(findTestObject(""Object Repository/loginPageSwabLabs/formUsername""), username)",Chrome 114.0.0.0,,,2023-06-27 18:38:49,2023-06-27 18:38:50,1.093s,PASSED
"setText(findTestObject(""Object Repository/loginPageSwabLabs/formPassword""), password)",Chrome 114.0.0.0,,,2023-06-27 18:38:50,2023-06-27 18:38:51,1.151s,PASSED
"click(findTestObject(""Object Repository/loginPageSwabLabs/buttonLogin""))",Chrome 114.0.0.0,,,2023-06-27 18:38:51,2023-06-27 18:38:52,0.473s,PASSED
"verifyElementVisible(findTestObject(""loginPageSwabLabs/errorMessage""))",Chrome 114.0.0.0,,,2023-06-27 18:38:52,2023-06-27 18:38:52,0.467s,PASSED
closeBrowser(),Chrome 114.0.0.0,,,2023-06-27 18:38:52,2023-06-27 18:38:53,0.648s,PASSED
,,,,,,,
Test Cases/Login/Login with performance_glitch_user,Chrome 114.0.0.0,,,2023-06-27 18:38:53,2023-06-27 18:39:06,13.595s,PASSED
"openBrowser("""")",Chrome 114.0.0.0,,,2023-06-27 18:38:53,2023-06-27 18:38:55,1.917s,PASSED
"navigateToUrl(""https://www.saucedemo.com/"")",Chrome 114.0.0.0,,,2023-06-27 18:38:55,2023-06-27 18:38:57,2.128s,PASSED
"setText(findTestObject(""Object Repository/loginPageSwabLabs/formUsername""), findTestData(""testDataLogin"").getValue(1, 4))",Chrome 114.0.0.0,,,2023-06-27 18:38:57,2023-06-27 18:38:58,1.185s,PASSED
"setText(findTestObject(""Object Repository/loginPageSwabLabs/formPassword""), findTestData(""testDataLogin"").getValue(2, 4))",Chrome 114.0.0.0,,,2023-06-27 18:38:58,2023-06-27 18:38:59,1.176s,PASSED
"click(findTestObject(""Object Repository/loginPageSwabLabs/buttonLogin""))",Chrome 114.0.0.0,,,2023-06-27 18:38:59,2023-06-27 18:39:05,5.456s,PASSED
"verifyElementVisible(findTestObject(""Object Repository/loginPageSwabLabs/textProducts""))",Chrome 114.0.0.0,,,2023-06-27 18:39:05,2023-06-27 18:39:06,0.641s,PASSED
closeBrowser(),Chrome 114.0.0.0,,,2023-06-27 18:39:06,2023-06-27 18:39:06,0.775s,PASSED
,,,,,,,
Test Cases/Login/Login with problem_user,Chrome 114.0.0.0,,,2023-06-27 18:39:06,2023-06-27 18:39:44,37.847s,FAILED
"openBrowser("""")",Chrome 114.0.0.0,,,2023-06-27 18:39:07,2023-06-27 18:39:08,1.235s,PASSED
"navigateToUrl(""https://www.saucedemo.com/"")",Chrome 114.0.0.0,,,2023-06-27 18:39:08,2023-06-27 18:39:10,2.300s,PASSED
"setText(findTestObject(""Object Repository/loginPageSwabLabs/formUsername""), username)",Chrome 114.0.0.0,,,2023-06-27 18:39:10,2023-06-27 18:39:11,1.020s,PASSED
"setText(findTestObject(""Object Repository/loginPageSwabLabs/formPassword""), password)",Chrome 114.0.0.0,,,2023-06-27 18:39:11,2023-06-27 18:39:12,1.000s,PASSED
"click(findTestObject(""Object Repository/loginPageSwabLabs/buttonLogin""))",Chrome 114.0.0.0,,,2023-06-27 18:39:12,2023-06-27 18:39:13,0.565s,PASSED
"verifyElementVisible(findTestObject(""Object Repository/loginPageSwabLabs/textProducts""))",Chrome 114.0.0.0,,,2023-06-27 18:39:13,2023-06-27 18:39:44,31.332s,FAILED
,,,,,,,
Test Cases/Login/Login with standard_user wrong password,Chrome 114.0.0.0,,,2023-06-27 18:39:44,2023-06-27 18:39:53,8.513s,PASSED
"openBrowser("""")",Chrome 114.0.0.0,,,2023-06-27 18:39:45,2023-06-27 18:39:47,2.015s,PASSED
"navigateToUrl(""https://www.saucedemo.com/"")",Chrome 114.0.0.0,,,2023-06-27 18:39:47,2023-06-27 18:39:49,2.709s,PASSED
"setText(findTestObject(""Object Repository/loginPageSwabLabs/formUsername""), username)",Chrome 114.0.0.0,,,2023-06-27 18:39:49,2023-06-27 18:39:50,0.766s,PASSED
"setText(findTestObject(""Object Repository/loginPageSwabLabs/formPassword""), password)",Chrome 114.0.0.0,,,2023-06-27 18:39:50,2023-06-27 18:39:51,0.729s,PASSED
"click(findTestObject(""Object Repository/loginPageSwabLabs/buttonLogin""))",Chrome 114.0.0.0,,,2023-06-27 18:39:51,2023-06-27 18:39:51,0.372s,PASSED
"verifyElementVisible(findTestObject(""loginPageSwabLabs/errorMessage""))",Chrome 114.0.0.0,,,2023-06-27 18:39:51,2023-06-27 18:39:52,0.477s,PASSED
closeBrowser(),Chrome 114.0.0.0,,,2023-06-27 18:39:52,2023-06-27 18:39:53,1.114s,PASSED
,,,,,,,
Test Cases/Login/Login with standard_user,Chrome 114.0.0.0,,,2023-06-27 18:39:53,2023-06-27 18:40:00,6.832s,PASSED
"openBrowser("""")",Chrome 114.0.0.0,,,2023-06-27 18:39:53,2023-06-27 18:39:54,1.505s,PASSED
"navigateToUrl(""https://www.saucedemo.com/"")",Chrome 114.0.0.0,,,2023-06-27 18:39:54,2023-06-27 18:39:57,2.357s,PASSED
"setText(findTestObject(""Object Repository/loginPageSwabLabs/formUsername""), username)",Chrome 114.0.0.0,,,2023-06-27 18:39:57,2023-06-27 18:39:58,0.770s,PASSED
"setText(findTestObject(""Object Repository/loginPageSwabLabs/formPassword""), password)",Chrome 114.0.0.0,,,2023-06-27 18:39:58,2023-06-27 18:39:59,0.974s,PASSED
"click(findTestObject(""Object Repository/loginPageSwabLabs/buttonLogin""))",Chrome 114.0.0.0,,,2023-06-27 18:39:59,2023-06-27 18:39:59,0.456s,PASSED
"verifyElementVisible(findTestObject(""Object Repository/loginPageSwabLabs/textProducts""))",Chrome 114.0.0.0,,,2023-06-27 18:39:59,2023-06-27 18:40:00,0.502s,PASSED
,,,,,,,
Test Cases/Login/Login with standard_user,Chrome 114.0.0.0,,,2023-06-27 18:40:00,2023-06-27 18:40:38,38.294s,FAILED
"openBrowser("""")",Chrome 114.0.0.0,,,2023-06-27 18:40:00,2023-06-27 18:40:02,2.051s,PASSED
"navigateToUrl(""https://www.saucedemo.com/"")",Chrome 114.0.0.0,,,2023-06-27 18:40:02,2023-06-27 18:40:04,2.448s,PASSED
"setText(findTestObject(""Object Repository/loginPageSwabLabs/formUsername""), username)",Chrome 114.0.0.0,,,2023-06-27 18:40:04,2023-06-27 18:40:05,1.094s,PASSED
"setText(findTestObject(""Object Repository/loginPageSwabLabs/formPassword""), password)",Chrome 114.0.0.0,,,2023-06-27 18:40:05,2023-06-27 18:40:06,0.836s,PASSED
"click(findTestObject(""Object Repository/loginPageSwabLabs/buttonLogin""))",Chrome 114.0.0.0,,,2023-06-27 18:40:06,2023-06-27 18:40:06,0.382s,PASSED
"verifyElementVisible(findTestObject(""Object Repository/loginPageSwabLabs/textProducts""))",Chrome 114.0.0.0,,,2023-06-27 18:40:06,2023-06-27 18:40:38,31.469s,FAILED
,,,,,,,
Test Cases/Login/Login with standard_user,Chrome 114.0.0.0,,,2023-06-27 18:40:38,2023-06-27 18:40:45,6.985s,PASSED
"openBrowser("""")",Chrome 114.0.0.0,,,2023-06-27 18:40:38,2023-06-27 18:40:40,2.048s,PASSED
"navigateToUrl(""https://www.saucedemo.com/"")",Chrome 114.0.0.0,,,2023-06-27 18:40:40,2023-06-27 18:40:42,2.184s,PASSED
"setText(findTestObject(""Object Repository/loginPageSwabLabs/formUsername""), username)",Chrome 114.0.0.0,,,2023-06-27 18:40:42,2023-06-27 18:40:43,0.972s,PASSED
"setText(findTestObject(""Object Repository/loginPageSwabLabs/formPassword""), password)",Chrome 114.0.0.0,,,2023-06-27 18:40:43,2023-06-27 18:40:44,0.914s,PASSED
"click(findTestObject(""Object Repository/loginPageSwabLabs/buttonLogin""))",Chrome 114.0.0.0,,,2023-06-27 18:40:44,2023-06-27 18:40:44,0.411s,PASSED
"verifyElementVisible(findTestObject(""Object Repository/loginPageSwabLabs/textProducts""))",Chrome 114.0.0.0,,,2023-06-27 18:40:44,2023-06-27 18:40:45,0.447s,PASSED
,,,,,,,
Test Cases/Login/Login with standard_user,Chrome 114.0.0.0,,,2023-06-27 18:40:45,2023-06-27 18:40:57,12.178s,PASSED
"openBrowser("""")",Chrome 114.0.0.0,,,2023-06-27 18:40:45,2023-06-27 18:40:47,2.023s,PASSED
"navigateToUrl(""https://www.saucedemo.com/"")",Chrome 114.0.0.0,,,2023-06-27 18:40:47,2023-06-27 18:40:49,2.140s,PASSED
"setText(findTestObject(""Object Repository/loginPageSwabLabs/formUsername""), username)",Chrome 114.0.0.0,,,2023-06-27 18:40:49,2023-06-27 18:40:50,1.082s,PASSED
"setText(findTestObject(""Object Repository/loginPageSwabLabs/formPassword""), password)",Chrome 114.0.0.0,,,2023-06-27 18:40:50,2023-06-27 18:40:51,0.806s,PASSED
"click(findTestObject(""Object Repository/loginPageSwabLabs/buttonLogin""))",Chrome 114.0.0.0,,,2023-06-27 18:40:51,2023-06-27 18:40:57,5.667s,PASSED
"verifyElementVisible(findTestObject(""Object Repository/loginPageSwabLabs/textProducts""))",Chrome 114.0.0.0,,,2023-06-27 18:40:57,2023-06-27 18:40:57,0.453s,PASSED
,,,,,,,
Test Cases/Login/Login with all user,Chrome 114.0.0.0,,,2023-06-27 18:40:57,2023-06-27 18:41:05,8.319s,PASSED
"openBrowser("""")",Chrome 114.0.0.0,,,2023-06-27 18:40:57,2023-06-27 18:40:59,1.922s,PASSED
"navigateToUrl(""https://www.saucedemo.com/"")",Chrome 114.0.0.0,,,2023-06-27 18:40:59,2023-06-27 18:41:02,2.253s,PASSED
"setText(findTestObject(""Object Repository/loginPageSwabLabs/formUsername""), username)",Chrome 114.0.0.0,,,2023-06-27 18:41:02,2023-06-27 18:41:03,1.105s,PASSED
"setText(findTestObject(""Object Repository/loginPageSwabLabs/formPassword""), password)",Chrome 114.0.0.0,,,2023-06-27 18:41:03,2023-06-27 18:41:04,1.140s,PASSED
"click(findTestObject(""Object Repository/loginPageSwabLabs/buttonLogin""))",Chrome 114.0.0.0,,,2023-06-27 18:41:04,2023-06-27 18:41:04,0.483s,PASSED
"click(findTestObject(""Object Repository/loginPageSwabLabs/textProducts""))",Chrome 114.0.0.0,,,2023-06-27 18:41:04,2023-06-27 18:41:05,0.505s,PASSED
closeBrowser(),Chrome 114.0.0.0,,,2023-06-27 18:41:05,2023-06-27 18:41:05,0.637s,PASSED
,,,,,,,
Test Cases/Login/Login with all user,Chrome 114.0.0.0,,,2023-06-27 18:41:05,2023-06-27 18:41:43,37.737s,FAILED
"openBrowser("""")",Chrome 114.0.0.0,,,2023-06-27 18:41:05,2023-06-27 18:41:07,1.392s,PASSED
"navigateToUrl(""https://www.saucedemo.com/"")",Chrome 114.0.0.0,,,2023-06-27 18:41:07,2023-06-27 18:41:09,2.179s,PASSED
"setText(findTestObject(""Object Repository/loginPageSwabLabs/formUsername""), username)",Chrome 114.0.0.0,,,2023-06-27 18:41:09,2023-06-27 18:41:10,0.785s,PASSED
"setText(findTestObject(""Object Repository/loginPageSwabLabs/formPassword""), password)",Chrome 114.0.0.0,,,2023-06-27 18:41:10,2023-06-27 18:41:11,1.142s,PASSED
"click(findTestObject(""Object Repository/loginPageSwabLabs/buttonLogin""))",Chrome 114.0.0.0,,,2023-06-27 18:41:11,2023-06-27 18:41:12,0.647s,PASSED
"click(findTestObject(""Object Repository/loginPageSwabLabs/textProducts""))",Chrome 114.0.0.0,,,2023-06-27 18:41:12,2023-06-27 18:41:43,31.584s,FAILED
,,,,,,,
Test Cases/Login/Login with all user,Chrome 114.0.0.0,,,2023-06-27 18:41:43,2023-06-27 18:41:53,9.868s,PASSED
"openBrowser("""")",Chrome 114.0.0.0,,,2023-06-27 18:41:43,2023-06-27 18:41:45,1.867s,PASSED
"navigateToUrl(""https://www.saucedemo.com/"")",Chrome 114.0.0.0,,,2023-06-27 18:41:45,2023-06-27 18:41:50,4.630s,PASSED
"setText(findTestObject(""Object Repository/loginPageSwabLabs/formUsername""), username)",Chrome 114.0.0.0,,,2023-06-27 18:41:50,2023-06-27 18:41:51,0.764s,PASSED
"setText(findTestObject(""Object Repository/loginPageSwabLabs/formPassword""), password)",Chrome 114.0.0.0,,,2023-06-27 18:41:51,2023-06-27 18:41:52,1.046s,PASSED
"click(findTestObject(""Object Repository/loginPageSwabLabs/buttonLogin""))",Chrome 114.0.0.0,,,2023-06-27 18:41:52,2023-06-27 18:41:52,0.421s,PASSED
"click(findTestObject(""Object Repository/loginPageSwabLabs/textProducts""))",Chrome 114.0.0.0,,,2023-06-27 18:41:52,2023-06-27 18:41:52,0.478s,PASSED
closeBrowser(),Chrome 114.0.0.0,,,2023-06-27 18:41:52,2023-06-27 18:41:53,0.653s,PASSED
,,,,,,,
Test Cases/Login/Login with all user,Chrome 114.0.0.0,,,2023-06-27 18:41:53,2023-06-27 18:42:06,12.789s,PASSED
"openBrowser("""")",Chrome 114.0.0.0,,,2023-06-27 18:41:53,2023-06-27 18:41:54,1.197s,PASSED
"navigateToUrl(""https://www.saucedemo.com/"")",Chrome 114.0.0.0,,,2023-06-27 18:41:54,2023-06-27 18:41:57,2.423s,PASSED
"setText(findTestObject(""Object Repository/loginPageSwabLabs/formUsername""), username)",Chrome 114.0.0.0,,,2023-06-27 18:41:57,2023-06-27 18:41:58,1.181s,PASSED
"setText(findTestObject(""Object Repository/loginPageSwabLabs/formPassword""), password)",Chrome 114.0.0.0,,,2023-06-27 18:41:58,2023-06-27 18:41:59,1.132s,PASSED
"click(findTestObject(""Object Repository/loginPageSwabLabs/buttonLogin""))",Chrome 114.0.0.0,,,2023-06-27 18:41:59,2023-06-27 18:42:05,5.415s,PASSED
"click(findTestObject(""Object Repository/loginPageSwabLabs/textProducts""))",Chrome 114.0.0.0,,,2023-06-27 18:42:05,2023-06-27 18:42:05,0.630s,PASSED
closeBrowser(),Chrome 114.0.0.0,,,2023-06-27 18:42:05,2023-06-27 18:42:06,0.791s,PASSED
